%YAML 1.1
%TAG !u! tag:unity3d.com,2011:
--- !u!1045 &1
EditorBuildSettings:
  m_ObjectHideFlags: 0
  serializedVersion: 2
  m_Scenes:
  - enabled: 1
    path: Assets/Systems/Scenes/Tryst.unity
    guid: d93c74b266dcf88429644557fa73e9c4
  - enabled: 1
    path: Assets/Systems/Scenes/Level_Select.unity
    guid: c343087de353d4d4a9ffa18fa13f1bac
  - enabled: 1
    path: Assets/Systems/Scenes/Miku_01.unity
    guid: b8897d58485b9a74aa99ef2cb56e6a9d
  - enabled: 1
    path: Assets/Systems/Scenes/Sean_01.unity
    guid: 074ee5984a1da974bb88785c844ce41c
  - enabled: 1
    path: Assets/Systems/Scenes/Ryan_01.unity
    guid: 281afe0dde83d0b4ebd18b0496b8f519
  - enabled: 1
    path: Assets/Systems/Scenes/Sean_02.unity
    guid: a58ae45895f1d884f9fef81d79314b17
  m_configObjects: {}
