%YAML 1.1
%TAG !u! tag:unity3d.com,2011:
--- !u!1001 &187925584923946182
PrefabInstance:
  m_ObjectHideFlags: 0
  serializedVersion: 2
  m_Modification:
    m_TransformParent: {fileID: 0}
    m_Modifications:
    - target: {fileID: 747898192471260527, guid: 0871edea75cbe294982194e0449120ba,
        type: 3}
      propertyPath: m_Materials.Array.data[0]
      value: 
      objectReference: {fileID: 2100000, guid: 1efc840ca41ecac4f8f902ed66e9dfce, type: 2}
    - target: {fileID: 2288994809470521838, guid: 0871edea75cbe294982194e0449120ba,
        type: 3}
      propertyPath: m_Mesh
      value: 
      objectReference: {fileID: 0}
    - target: {fileID: 3375940005886592030, guid: 0871edea75cbe294982194e0449120ba,
        type: 3}
      propertyPath: m_Mesh
      value: 
      objectReference: {fileID: 0}
    - target: {fileID: 3375940005908958456, guid: 0871edea75cbe294982194e0449120ba,
        type: 3}
      propertyPath: m_Mesh
      value: 
      objectReference: {fileID: 0}
    - target: {fileID: 3375940005908958457, guid: 0871edea75cbe294982194e0449120ba,
        type: 3}
      propertyPath: m_Materials.Array.data[0]
      value: 
      objectReference: {fileID: 2100000, guid: 1efc840ca41ecac4f8f902ed66e9dfce, type: 2}
    - target: {fileID: 3375940005922110389, guid: 0871edea75cbe294982194e0449120ba,
        type: 3}
      propertyPath: m_Mesh
      value: 
      objectReference: {fileID: 0}
    - target: {fileID: 3375940005922110394, guid: 0871edea75cbe294982194e0449120ba,
        type: 3}
      propertyPath: m_Mesh
      value: 
      objectReference: {fileID: 0}
    - target: {fileID: 3375940005922110395, guid: 0871edea75cbe294982194e0449120ba,
        type: 3}
      propertyPath: m_Materials.Array.data[0]
      value: 
      objectReference: {fileID: 2100000, guid: 1efc840ca41ecac4f8f902ed66e9dfce, type: 2}
    - target: {fileID: 3375940005935986349, guid: 0871edea75cbe294982194e0449120ba,
        type: 3}
      propertyPath: m_Mesh
      value: 
      objectReference: {fileID: 0}
    - target: {fileID: 3375940006093441064, guid: 0871edea75cbe294982194e0449120ba,
        type: 3}
      propertyPath: m_Materials.Array.data[0]
      value: 
      objectReference: {fileID: 2100000, guid: 1efc840ca41ecac4f8f902ed66e9dfce, type: 2}
    - target: {fileID: 3375940006093441071, guid: 0871edea75cbe294982194e0449120ba,
        type: 3}
      propertyPath: m_Mesh
      value: 
      objectReference: {fileID: 0}
    - target: {fileID: 3375940007754192899, guid: 0871edea75cbe294982194e0449120ba,
        type: 3}
      propertyPath: m_Mesh
      value: 
      objectReference: {fileID: 0}
    - target: {fileID: 3375940007868086386, guid: 0871edea75cbe294982194e0449120ba,
        type: 3}
      propertyPath: m_Mesh
      value: 
      objectReference: {fileID: 0}
    - target: {fileID: 3375940007868086387, guid: 0871edea75cbe294982194e0449120ba,
        type: 3}
      propertyPath: m_Materials.Array.data[0]
      value: 
      objectReference: {fileID: 2100000, guid: 1efc840ca41ecac4f8f902ed66e9dfce, type: 2}
    - target: {fileID: 4066986320487833489, guid: 0871edea75cbe294982194e0449120ba,
        type: 3}
      propertyPath: m_Mesh
      value: 
      objectReference: {fileID: 0}
    - target: {fileID: 4453756744756699860, guid: 0871edea75cbe294982194e0449120ba,
        type: 3}
      propertyPath: m_Mesh
      value: 
      objectReference: {fileID: 0}
    - target: {fileID: 4453756744756699863, guid: 0871edea75cbe294982194e0449120ba,
        type: 3}
      propertyPath: m_Mesh
      value: 
      objectReference: {fileID: 0}
    - target: {fileID: 4453756745027146036, guid: 0871edea75cbe294982194e0449120ba,
        type: 3}
      propertyPath: m_Name
      value: DoorGreen
      objectReference: {fileID: 0}
    - target: {fileID: 4453756745027146040, guid: 0871edea75cbe294982194e0449120ba,
        type: 3}
      propertyPath: m_Mesh
      value: 
      objectReference: {fileID: 0}
    - target: {fileID: 4453756745027146043, guid: 0871edea75cbe294982194e0449120ba,
        type: 3}
      propertyPath: m_Mesh
      value: 
      objectReference: {fileID: 0}
    - target: {fileID: 4453756745027146045, guid: 0871edea75cbe294982194e0449120ba,
        type: 3}
      propertyPath: lockColour
      value: 3
      objectReference: {fileID: 0}
    - target: {fileID: 4453756745027146047, guid: 0871edea75cbe294982194e0449120ba,
        type: 3}
      propertyPath: m_LocalPosition.x
      value: 7.5
      objectReference: {fileID: 0}
    - target: {fileID: 4453756745027146047, guid: 0871edea75cbe294982194e0449120ba,
        type: 3}
      propertyPath: m_LocalPosition.y
      value: 0
      objectReference: {fileID: 0}
    - target: {fileID: 4453756745027146047, guid: 0871edea75cbe294982194e0449120ba,
        type: 3}
      propertyPath: m_LocalPosition.z
      value: 6
      objectReference: {fileID: 0}
    - target: {fileID: 4453756745027146047, guid: 0871edea75cbe294982194e0449120ba,
        type: 3}
      propertyPath: m_LocalRotation.x
      value: 0
      objectReference: {fileID: 0}
    - target: {fileID: 4453756745027146047, guid: 0871edea75cbe294982194e0449120ba,
        type: 3}
      propertyPath: m_LocalRotation.y
      value: 0
      objectReference: {fileID: 0}
    - target: {fileID: 4453756745027146047, guid: 0871edea75cbe294982194e0449120ba,
        type: 3}
      propertyPath: m_LocalRotation.z
      value: 0
      objectReference: {fileID: 0}
    - target: {fileID: 4453756745027146047, guid: 0871edea75cbe294982194e0449120ba,
        type: 3}
      propertyPath: m_LocalRotation.w
      value: 1
      objectReference: {fileID: 0}
    - target: {fileID: 4453756745027146047, guid: 0871edea75cbe294982194e0449120ba,
        type: 3}
      propertyPath: m_RootOrder
      value: 0
      objectReference: {fileID: 0}
    - target: {fileID: 4453756745027146047, guid: 0871edea75cbe294982194e0449120ba,
        type: 3}
      propertyPath: m_LocalEulerAnglesHint.x
      value: 0
      objectReference: {fileID: 0}
    - target: {fileID: 4453756745027146047, guid: 0871edea75cbe294982194e0449120ba,
        type: 3}
      propertyPath: m_LocalEulerAnglesHint.y
      value: 0
      objectReference: {fileID: 0}
    - target: {fileID: 4453756745027146047, guid: 0871edea75cbe294982194e0449120ba,
        type: 3}
      propertyPath: m_LocalEulerAnglesHint.z
      value: 0
      objectReference: {fileID: 0}
    m_RemovedComponents: []
  m_SourcePrefab: {fileID: 100100000, guid: 0871edea75cbe294982194e0449120ba, type: 3}
