%YAML 1.1
%TAG !u! tag:unity3d.com,2011:
--- !u!1001 &8693180095102857151
PrefabInstance:
  m_ObjectHideFlags: 0
  serializedVersion: 2
  m_Modification:
    m_TransformParent: {fileID: 0}
    m_Modifications:
    - target: {fileID: 1295265872516228049, guid: 5d243c223c3345d4a93cd4af46a6afed,
        type: 3}
      propertyPath: m_Materials.Array.data[0]
      value: 
      objectReference: {fileID: 2100000, guid: a92dff63398b4ec4aa92045155393976, type: 2}
    - target: {fileID: 1295265872516228054, guid: 5d243c223c3345d4a93cd4af46a6afed,
        type: 3}
      propertyPath: m_Mesh
      value: 
      objectReference: {fileID: 0}
    - target: {fileID: 3006144984514644218, guid: 5d243c223c3345d4a93cd4af46a6afed,
        type: 3}
      propertyPath: m_Mesh
      value: 
      objectReference: {fileID: 0}
    - target: {fileID: 3006144985436328385, guid: 5d243c223c3345d4a93cd4af46a6afed,
        type: 3}
      propertyPath: m_Mesh
      value: 
      objectReference: {fileID: 0}
    - target: {fileID: 3006144985564462048, guid: 5d243c223c3345d4a93cd4af46a6afed,
        type: 3}
      propertyPath: m_Materials.Array.data[0]
      value: 
      objectReference: {fileID: 2100000, guid: a3dd1b9bd8dbf6843b3afa59a31b78fb, type: 2}
    - target: {fileID: 3006144985564462051, guid: 5d243c223c3345d4a93cd4af46a6afed,
        type: 3}
      propertyPath: m_Layer
      value: 13
      objectReference: {fileID: 0}
    - target: {fileID: 3006144985564462055, guid: 5d243c223c3345d4a93cd4af46a6afed,
        type: 3}
      propertyPath: m_Mesh
      value: 
      objectReference: {fileID: 0}
    - target: {fileID: 3186113509949935169, guid: 5d243c223c3345d4a93cd4af46a6afed,
        type: 3}
      propertyPath: m_LocalPosition.x
      value: 12.5
      objectReference: {fileID: 0}
    - target: {fileID: 3186113509949935169, guid: 5d243c223c3345d4a93cd4af46a6afed,
        type: 3}
      propertyPath: m_LocalPosition.y
      value: 0
      objectReference: {fileID: 0}
    - target: {fileID: 3186113509949935169, guid: 5d243c223c3345d4a93cd4af46a6afed,
        type: 3}
      propertyPath: m_LocalPosition.z
      value: -10
      objectReference: {fileID: 0}
    - target: {fileID: 3186113509949935169, guid: 5d243c223c3345d4a93cd4af46a6afed,
        type: 3}
      propertyPath: m_LocalRotation.x
      value: -0
      objectReference: {fileID: 0}
    - target: {fileID: 3186113509949935169, guid: 5d243c223c3345d4a93cd4af46a6afed,
        type: 3}
      propertyPath: m_LocalRotation.y
      value: -0
      objectReference: {fileID: 0}
    - target: {fileID: 3186113509949935169, guid: 5d243c223c3345d4a93cd4af46a6afed,
        type: 3}
      propertyPath: m_LocalRotation.z
      value: 0.000000014901161
      objectReference: {fileID: 0}
    - target: {fileID: 3186113509949935169, guid: 5d243c223c3345d4a93cd4af46a6afed,
        type: 3}
      propertyPath: m_LocalRotation.w
      value: 1
      objectReference: {fileID: 0}
    - target: {fileID: 3186113509949935169, guid: 5d243c223c3345d4a93cd4af46a6afed,
        type: 3}
      propertyPath: m_RootOrder
      value: 0
      objectReference: {fileID: 0}
    - target: {fileID: 3186113509949935169, guid: 5d243c223c3345d4a93cd4af46a6afed,
        type: 3}
      propertyPath: m_LocalEulerAnglesHint.x
      value: 0
      objectReference: {fileID: 0}
    - target: {fileID: 3186113509949935169, guid: 5d243c223c3345d4a93cd4af46a6afed,
        type: 3}
      propertyPath: m_LocalEulerAnglesHint.y
      value: 0
      objectReference: {fileID: 0}
    - target: {fileID: 3186113509949935169, guid: 5d243c223c3345d4a93cd4af46a6afed,
        type: 3}
      propertyPath: m_LocalEulerAnglesHint.z
      value: 0
      objectReference: {fileID: 0}
    - target: {fileID: 3186113509949935173, guid: 5d243c223c3345d4a93cd4af46a6afed,
        type: 3}
      propertyPath: m_Mesh
      value: 
      objectReference: {fileID: 0}
    - target: {fileID: 3186113509949935174, guid: 5d243c223c3345d4a93cd4af46a6afed,
        type: 3}
      propertyPath: m_Mesh
      value: 
      objectReference: {fileID: 0}
    - target: {fileID: 3186113509949935178, guid: 5d243c223c3345d4a93cd4af46a6afed,
        type: 3}
      propertyPath: m_Name
      value: ScannerPink
      objectReference: {fileID: 0}
    - target: {fileID: 3186113510221118889, guid: 5d243c223c3345d4a93cd4af46a6afed,
        type: 3}
      propertyPath: m_Mesh
      value: 
      objectReference: {fileID: 0}
    - target: {fileID: 3186113510221118890, guid: 5d243c223c3345d4a93cd4af46a6afed,
        type: 3}
      propertyPath: m_Mesh
      value: 
      objectReference: {fileID: 0}
    - target: {fileID: 4548647711258191044, guid: 5d243c223c3345d4a93cd4af46a6afed,
        type: 3}
      propertyPath: m_Mesh
      value: 
      objectReference: {fileID: 0}
    - target: {fileID: 4548647711258191045, guid: 5d243c223c3345d4a93cd4af46a6afed,
        type: 3}
      propertyPath: m_Materials.Array.data[0]
      value: 
      objectReference: {fileID: 2100000, guid: a92dff63398b4ec4aa92045155393976, type: 2}
    - target: {fileID: 4548647711258191051, guid: 5d243c223c3345d4a93cd4af46a6afed,
        type: 3}
      propertyPath: m_Mesh
      value: 
      objectReference: {fileID: 0}
    m_RemovedComponents: []
  m_SourcePrefab: {fileID: 100100000, guid: 5d243c223c3345d4a93cd4af46a6afed, type: 3}
