# ProBuilder 4.2.3
# https://unity3d.com/unity/features/worldbuilding/probuilder
# 7/1/2020 2:51:44 PM

mtllib ./DoorHollow.mtl
o DoorHollow

g Door (5)
v 0 1 0
v 0 1 -1
v 0 0 -1
v 0 0 0
v -1 0 0
v -1 0 -1
v -1 1 -1
v -1 1 0
v -0.25 1 -0.75
v -0.75 1 -0.75
v -0.75 1 -0.25
v -0.75 0 -0.75
v -0.25 0 -0.75
v -0.75 0 -0.25
v -0.25 1 -0.25
v -0.25 0 -0.25

vt 0 1
vt 1 1
vt 1 0
vt 0 0
vt -1 0
vt -1 1
vt 1 -1
vt 0 -1
vt 0.25 -0.75
vt 0.75 -0.75
vt 0.75 -0.25
vt -0.75 -0.75
vt -0.25 -0.75
vt -1 -1
vt -0.75 -0.25
vt 0.25 -0.25
vt -0.25 -0.25
vt 0.75 1
vt 0.25 1
vt 0.75 0
vt 0.25 0
vt -0.25 1
vt -0.75 1
vt -0.25 0
vt -0.75 0

vn 1 0 0
vn -1 0 0
vn 0 0 -1
vn 0 1 0
vn 0 -1 0
vn 0 0 1

usemtl Floor
f 3/3/1 2/2/1 1/1/1 4/4/1
f 8/1/2 7/6/2 6/5/2 5/4/2
f 6/3/3 7/2/3 2/1/3 3/4/3
f 10/10/4 9/9/4 2/8/4 7/7/4
f 8/3/4 11/11/4 10/10/4 7/7/4
f 3/8/5 13/13/5 12/12/5 6/14/5
f 12/12/5 14/15/5 5/5/5 6/14/5
f 1/1/6 8/6/6 5/5/6 4/4/6
f 15/16/4 1/4/4 2/8/4 9/9/4
f 8/3/4 1/4/4 15/16/4 11/11/4
f 3/8/5 4/4/5 16/17/5 13/13/5
f 16/17/5 4/4/5 5/5/5 14/15/5
f 16/21/3 14/20/3 11/18/3 15/19/3
f 13/25/2 16/24/2 15/22/2 9/23/2
f 12/25/6 13/24/6 9/22/6 10/23/6
f 14/21/1 12/20/1 10/18/1 11/19/1

