%YAML 1.1
%TAG !u! tag:unity3d.com,2011:
--- !u!1001 &970366259726348696
PrefabInstance:
  m_ObjectHideFlags: 0
  serializedVersion: 2
  m_Modification:
    m_TransformParent: {fileID: 0}
    m_Modifications:
    - target: {fileID: 1627849322, guid: 2413c19c5b407da4db5ac7f180c1526c, type: 3}
      propertyPath: currentKeyColour
      value: 2
      objectReference: {fileID: 0}
    - target: {fileID: 1627849322, guid: 2413c19c5b407da4db5ac7f180c1526c, type: 3}
      propertyPath: shader
      value: 
      objectReference: {fileID: 2100000, guid: 8b4dfaa3a184fac469506b1d82503cd9, type: 2}
    - target: {fileID: 1465764661819815335, guid: 2413c19c5b407da4db5ac7f180c1526c,
        type: 3}
      propertyPath: m_Name
      value: KeycardOrange Variant
      objectReference: {fileID: 0}
    - target: {fileID: 1465764661819815335, guid: 2413c19c5b407da4db5ac7f180c1526c,
        type: 3}
      propertyPath: m_Layer
      value: 11
      objectReference: {fileID: 0}
    - target: {fileID: 3204516382543887854, guid: 2413c19c5b407da4db5ac7f180c1526c,
        type: 3}
      propertyPath: m_LocalPosition.x
      value: -5
      objectReference: {fileID: 0}
    - target: {fileID: 3204516382543887854, guid: 2413c19c5b407da4db5ac7f180c1526c,
        type: 3}
      propertyPath: m_LocalPosition.y
      value: 1
      objectReference: {fileID: 0}
    - target: {fileID: 3204516382543887854, guid: 2413c19c5b407da4db5ac7f180c1526c,
        type: 3}
      propertyPath: m_LocalPosition.z
      value: 5
      objectReference: {fileID: 0}
    - target: {fileID: 3204516382543887854, guid: 2413c19c5b407da4db5ac7f180c1526c,
        type: 3}
      propertyPath: m_LocalRotation.x
      value: -0
      objectReference: {fileID: 0}
    - target: {fileID: 3204516382543887854, guid: 2413c19c5b407da4db5ac7f180c1526c,
        type: 3}
      propertyPath: m_LocalRotation.y
      value: -0
      objectReference: {fileID: 0}
    - target: {fileID: 3204516382543887854, guid: 2413c19c5b407da4db5ac7f180c1526c,
        type: 3}
      propertyPath: m_LocalRotation.z
      value: 0.000000014901161
      objectReference: {fileID: 0}
    - target: {fileID: 3204516382543887854, guid: 2413c19c5b407da4db5ac7f180c1526c,
        type: 3}
      propertyPath: m_LocalRotation.w
      value: 1
      objectReference: {fileID: 0}
    - target: {fileID: 3204516382543887854, guid: 2413c19c5b407da4db5ac7f180c1526c,
        type: 3}
      propertyPath: m_RootOrder
      value: 0
      objectReference: {fileID: 0}
    - target: {fileID: 3204516382543887854, guid: 2413c19c5b407da4db5ac7f180c1526c,
        type: 3}
      propertyPath: m_LocalEulerAnglesHint.x
      value: 0
      objectReference: {fileID: 0}
    - target: {fileID: 3204516382543887854, guid: 2413c19c5b407da4db5ac7f180c1526c,
        type: 3}
      propertyPath: m_LocalEulerAnglesHint.y
      value: 0
      objectReference: {fileID: 0}
    - target: {fileID: 3204516382543887854, guid: 2413c19c5b407da4db5ac7f180c1526c,
        type: 3}
      propertyPath: m_LocalEulerAnglesHint.z
      value: 0
      objectReference: {fileID: 0}
    - target: {fileID: 5994450479666997825, guid: 2413c19c5b407da4db5ac7f180c1526c,
        type: 3}
      propertyPath: m_Materials.Array.data[0]
      value: 
      objectReference: {fileID: 2100000, guid: 782c57fa94b987041a494948825843fc, type: 2}
    - target: {fileID: 5994450479703894263, guid: 2413c19c5b407da4db5ac7f180c1526c,
        type: 3}
      propertyPath: m_Color.r
      value: 1
      objectReference: {fileID: 0}
    - target: {fileID: 5994450479703894263, guid: 2413c19c5b407da4db5ac7f180c1526c,
        type: 3}
      propertyPath: m_Color.g
      value: 0.053741027
      objectReference: {fileID: 0}
    - target: {fileID: 5994450479703894263, guid: 2413c19c5b407da4db5ac7f180c1526c,
        type: 3}
      propertyPath: m_Color.b
      value: 0
      objectReference: {fileID: 0}
    m_RemovedComponents: []
  m_SourcePrefab: {fileID: 100100000, guid: 2413c19c5b407da4db5ac7f180c1526c, type: 3}
