%YAML 1.1
%TAG !u! tag:unity3d.com,2011:
--- !u!1001 &1049819868344863955
PrefabInstance:
  m_ObjectHideFlags: 0
  serializedVersion: 2
  m_Modification:
    m_TransformParent: {fileID: 0}
    m_Modifications:
    - target: {fileID: 2043179756496411460, guid: 4e90a2e80bc21b4468bd0d03fb6b9828,
        type: 3}
      propertyPath: m_Name
      value: Lock Green
      objectReference: {fileID: 0}
    - target: {fileID: 4185636030018862391, guid: 4e90a2e80bc21b4468bd0d03fb6b9828,
        type: 3}
      propertyPath: m_LocalPosition.x
      value: 0
      objectReference: {fileID: 0}
    - target: {fileID: 4185636030018862391, guid: 4e90a2e80bc21b4468bd0d03fb6b9828,
        type: 3}
      propertyPath: m_LocalPosition.y
      value: 0
      objectReference: {fileID: 0}
    - target: {fileID: 4185636030018862391, guid: 4e90a2e80bc21b4468bd0d03fb6b9828,
        type: 3}
      propertyPath: m_LocalPosition.z
      value: 0
      objectReference: {fileID: 0}
    - target: {fileID: 4185636030018862391, guid: 4e90a2e80bc21b4468bd0d03fb6b9828,
        type: 3}
      propertyPath: m_LocalRotation.x
      value: -0
      objectReference: {fileID: 0}
    - target: {fileID: 4185636030018862391, guid: 4e90a2e80bc21b4468bd0d03fb6b9828,
        type: 3}
      propertyPath: m_LocalRotation.y
      value: -0
      objectReference: {fileID: 0}
    - target: {fileID: 4185636030018862391, guid: 4e90a2e80bc21b4468bd0d03fb6b9828,
        type: 3}
      propertyPath: m_LocalRotation.z
      value: -0
      objectReference: {fileID: 0}
    - target: {fileID: 4185636030018862391, guid: 4e90a2e80bc21b4468bd0d03fb6b9828,
        type: 3}
      propertyPath: m_LocalRotation.w
      value: 1
      objectReference: {fileID: 0}
    - target: {fileID: 4185636030018862391, guid: 4e90a2e80bc21b4468bd0d03fb6b9828,
        type: 3}
      propertyPath: m_RootOrder
      value: 0
      objectReference: {fileID: 0}
    - target: {fileID: 4185636030018862391, guid: 4e90a2e80bc21b4468bd0d03fb6b9828,
        type: 3}
      propertyPath: m_LocalEulerAnglesHint.x
      value: 0
      objectReference: {fileID: 0}
    - target: {fileID: 4185636030018862391, guid: 4e90a2e80bc21b4468bd0d03fb6b9828,
        type: 3}
      propertyPath: m_LocalEulerAnglesHint.y
      value: 0
      objectReference: {fileID: 0}
    - target: {fileID: 4185636030018862391, guid: 4e90a2e80bc21b4468bd0d03fb6b9828,
        type: 3}
      propertyPath: m_LocalEulerAnglesHint.z
      value: 0
      objectReference: {fileID: 0}
    - target: {fileID: 3539155486906664344, guid: 4e90a2e80bc21b4468bd0d03fb6b9828,
        type: 3}
      propertyPath: m_Mesh
      value: 
      objectReference: {fileID: 0}
    - target: {fileID: 3270937728435279711, guid: 4e90a2e80bc21b4468bd0d03fb6b9828,
        type: 3}
      propertyPath: m_Mesh
      value: 
      objectReference: {fileID: 0}
    - target: {fileID: 8676183265536615906, guid: 4e90a2e80bc21b4468bd0d03fb6b9828,
        type: 3}
      propertyPath: m_Mesh
      value: 
      objectReference: {fileID: 0}
    - target: {fileID: 170733168096782116, guid: 4e90a2e80bc21b4468bd0d03fb6b9828,
        type: 3}
      propertyPath: m_Mesh
      value: 
      objectReference: {fileID: 0}
    - target: {fileID: 4534969037111437776, guid: 4e90a2e80bc21b4468bd0d03fb6b9828,
        type: 3}
      propertyPath: m_Mesh
      value: 
      objectReference: {fileID: 0}
    - target: {fileID: 5919446838591754129, guid: 4e90a2e80bc21b4468bd0d03fb6b9828,
        type: 3}
      propertyPath: m_Materials.Array.data[0]
      value: 
      objectReference: {fileID: 2100000, guid: 1efc840ca41ecac4f8f902ed66e9dfce, type: 2}
    - target: {fileID: 1632951850725182439, guid: 4e90a2e80bc21b4468bd0d03fb6b9828,
        type: 3}
      propertyPath: m_Mesh
      value: 
      objectReference: {fileID: 0}
    - target: {fileID: 2646057183881570585, guid: 4e90a2e80bc21b4468bd0d03fb6b9828,
        type: 3}
      propertyPath: m_Materials.Array.data[0]
      value: 
      objectReference: {fileID: 2100000, guid: 1efc840ca41ecac4f8f902ed66e9dfce, type: 2}
    - target: {fileID: 6922439838581157986, guid: 4e90a2e80bc21b4468bd0d03fb6b9828,
        type: 3}
      propertyPath: m_Mesh
      value: 
      objectReference: {fileID: 0}
    - target: {fileID: 1901769362761818230, guid: 4e90a2e80bc21b4468bd0d03fb6b9828,
        type: 3}
      propertyPath: m_Materials.Array.data[0]
      value: 
      objectReference: {fileID: 2100000, guid: 1efc840ca41ecac4f8f902ed66e9dfce, type: 2}
    - target: {fileID: 7879502145723120180, guid: 4e90a2e80bc21b4468bd0d03fb6b9828,
        type: 3}
      propertyPath: m_Mesh
      value: 
      objectReference: {fileID: 0}
    - target: {fileID: 4001991544880505252, guid: 4e90a2e80bc21b4468bd0d03fb6b9828,
        type: 3}
      propertyPath: m_Materials.Array.data[0]
      value: 
      objectReference: {fileID: 2100000, guid: 1efc840ca41ecac4f8f902ed66e9dfce, type: 2}
    - target: {fileID: 5279680959859419062, guid: 4e90a2e80bc21b4468bd0d03fb6b9828,
        type: 3}
      propertyPath: lockColour
      value: 3
      objectReference: {fileID: 0}
    m_RemovedComponents: []
  m_SourcePrefab: {fileID: 100100000, guid: 4e90a2e80bc21b4468bd0d03fb6b9828, type: 3}
