%YAML 1.1
%TAG !u! tag:unity3d.com,2011:
--- !u!1001 &7659548363367639814
PrefabInstance:
  m_ObjectHideFlags: 0
  serializedVersion: 2
  m_Modification:
    m_TransformParent: {fileID: 0}
    m_Modifications:
    - target: {fileID: 157671230, guid: a58ecfdfe01fdf74fab14081eaa72ee0, type: 3}
      propertyPath: m_Materials.Array.data[0]
      value: 
      objectReference: {fileID: 0}
    - target: {fileID: 157671230, guid: a58ecfdfe01fdf74fab14081eaa72ee0, type: 3}
      propertyPath: m_Enabled
      value: 0
      objectReference: {fileID: 0}
    - target: {fileID: 500468881, guid: a58ecfdfe01fdf74fab14081eaa72ee0, type: 3}
      propertyPath: m_IsActive
      value: 0
      objectReference: {fileID: 0}
    - target: {fileID: 1033534787, guid: a58ecfdfe01fdf74fab14081eaa72ee0, type: 3}
      propertyPath: m_IsActive
      value: 0
      objectReference: {fileID: 0}
    - target: {fileID: 1033784734, guid: a58ecfdfe01fdf74fab14081eaa72ee0, type: 3}
      propertyPath: m_IsActive
      value: 0
      objectReference: {fileID: 0}
    - target: {fileID: 2108135627, guid: a58ecfdfe01fdf74fab14081eaa72ee0, type: 3}
      propertyPath: m_textInfo.characterCount
      value: 11
      objectReference: {fileID: 0}
    - target: {fileID: 2108135627, guid: a58ecfdfe01fdf74fab14081eaa72ee0, type: 3}
      propertyPath: m_textInfo.spaceCount
      value: 1
      objectReference: {fileID: 0}
    - target: {fileID: 2108135627, guid: a58ecfdfe01fdf74fab14081eaa72ee0, type: 3}
      propertyPath: m_textInfo.wordCount
      value: 2
      objectReference: {fileID: 0}
    - target: {fileID: 2108135627, guid: a58ecfdfe01fdf74fab14081eaa72ee0, type: 3}
      propertyPath: m_textInfo.lineCount
      value: 1
      objectReference: {fileID: 0}
    - target: {fileID: 2108135627, guid: a58ecfdfe01fdf74fab14081eaa72ee0, type: 3}
      propertyPath: m_textInfo.pageCount
      value: 1
      objectReference: {fileID: 0}
    - target: {fileID: 2108135627, guid: a58ecfdfe01fdf74fab14081eaa72ee0, type: 3}
      propertyPath: m_fontSizeMax
      value: 200
      objectReference: {fileID: 0}
    - target: {fileID: 2108135627, guid: a58ecfdfe01fdf74fab14081eaa72ee0, type: 3}
      propertyPath: m_fontSize
      value: 200
      objectReference: {fileID: 0}
    - target: {fileID: 1545825398951893778, guid: a58ecfdfe01fdf74fab14081eaa72ee0,
        type: 3}
      propertyPath: m_Mesh
      value: 
      objectReference: {fileID: 0}
    - target: {fileID: 6298998716360834421, guid: a58ecfdfe01fdf74fab14081eaa72ee0,
        type: 3}
      propertyPath: m_LocalRotation.y
      value: 0.35245585
      objectReference: {fileID: 0}
    - target: {fileID: 6298998716360834421, guid: a58ecfdfe01fdf74fab14081eaa72ee0,
        type: 3}
      propertyPath: m_LocalRotation.z
      value: -0.14906871
      objectReference: {fileID: 0}
    - target: {fileID: 6298998716946829168, guid: a58ecfdfe01fdf74fab14081eaa72ee0,
        type: 3}
      propertyPath: m_LocalPosition.x
      value: 0
      objectReference: {fileID: 0}
    - target: {fileID: 6298998716946829168, guid: a58ecfdfe01fdf74fab14081eaa72ee0,
        type: 3}
      propertyPath: m_LocalPosition.y
      value: 0
      objectReference: {fileID: 0}
    - target: {fileID: 6298998716946829168, guid: a58ecfdfe01fdf74fab14081eaa72ee0,
        type: 3}
      propertyPath: m_LocalPosition.z
      value: 0
      objectReference: {fileID: 0}
    - target: {fileID: 6298998716946829168, guid: a58ecfdfe01fdf74fab14081eaa72ee0,
        type: 3}
      propertyPath: m_LocalRotation.x
      value: 0
      objectReference: {fileID: 0}
    - target: {fileID: 6298998716946829168, guid: a58ecfdfe01fdf74fab14081eaa72ee0,
        type: 3}
      propertyPath: m_LocalRotation.y
      value: 0
      objectReference: {fileID: 0}
    - target: {fileID: 6298998716946829168, guid: a58ecfdfe01fdf74fab14081eaa72ee0,
        type: 3}
      propertyPath: m_LocalRotation.z
      value: 0
      objectReference: {fileID: 0}
    - target: {fileID: 6298998716946829168, guid: a58ecfdfe01fdf74fab14081eaa72ee0,
        type: 3}
      propertyPath: m_LocalRotation.w
      value: 1
      objectReference: {fileID: 0}
    - target: {fileID: 6298998716946829168, guid: a58ecfdfe01fdf74fab14081eaa72ee0,
        type: 3}
      propertyPath: m_RootOrder
      value: 0
      objectReference: {fileID: 0}
    - target: {fileID: 6298998716946829168, guid: a58ecfdfe01fdf74fab14081eaa72ee0,
        type: 3}
      propertyPath: m_LocalEulerAnglesHint.x
      value: 0
      objectReference: {fileID: 0}
    - target: {fileID: 6298998716946829168, guid: a58ecfdfe01fdf74fab14081eaa72ee0,
        type: 3}
      propertyPath: m_LocalEulerAnglesHint.y
      value: 0
      objectReference: {fileID: 0}
    - target: {fileID: 6298998716946829168, guid: a58ecfdfe01fdf74fab14081eaa72ee0,
        type: 3}
      propertyPath: m_LocalEulerAnglesHint.z
      value: 0
      objectReference: {fileID: 0}
    - target: {fileID: 6298998716946829170, guid: a58ecfdfe01fdf74fab14081eaa72ee0,
        type: 3}
      propertyPath: isFrontEnd
      value: 1
      objectReference: {fileID: 0}
    - target: {fileID: 6298998716946829183, guid: a58ecfdfe01fdf74fab14081eaa72ee0,
        type: 3}
      propertyPath: m_Name
      value: _GameManagerMain
      objectReference: {fileID: 0}
    - target: {fileID: 6298998717412490295, guid: a58ecfdfe01fdf74fab14081eaa72ee0,
        type: 3}
      propertyPath: m_Mesh
      value: 
      objectReference: {fileID: 0}
    - target: {fileID: 6298998717543133032, guid: a58ecfdfe01fdf74fab14081eaa72ee0,
        type: 3}
      propertyPath: m_Enabled
      value: 0
      objectReference: {fileID: 0}
    - target: {fileID: 6298998717543133043, guid: a58ecfdfe01fdf74fab14081eaa72ee0,
        type: 3}
      propertyPath: m_LocalRotation.y
      value: 0.35245585
      objectReference: {fileID: 0}
    - target: {fileID: 6298998717543133043, guid: a58ecfdfe01fdf74fab14081eaa72ee0,
        type: 3}
      propertyPath: m_LocalRotation.z
      value: -0.14906871
      objectReference: {fileID: 0}
    - target: {fileID: 6298998718037382054, guid: a58ecfdfe01fdf74fab14081eaa72ee0,
        type: 3}
      propertyPath: m_IsActive
      value: 0
      objectReference: {fileID: 0}
    - target: {fileID: 6924019057896408835, guid: a58ecfdfe01fdf74fab14081eaa72ee0,
        type: 3}
      propertyPath: m_IsActive
      value: 0
      objectReference: {fileID: 0}
    m_RemovedComponents: []
  m_SourcePrefab: {fileID: 100100000, guid: a58ecfdfe01fdf74fab14081eaa72ee0, type: 3}
