%YAML 1.1
%TAG !u! tag:unity3d.com,2011:
--- !u!1 &269081362596828680
GameObject:
  m_ObjectHideFlags: 0
  m_CorrespondingSourceObject: {fileID: 0}
  m_PrefabInstance: {fileID: 0}
  m_PrefabAsset: {fileID: 0}
  serializedVersion: 6
  m_Component:
  - component: {fileID: 4607415696153454309}
  - component: {fileID: 4714765396746210133}
  m_Layer: 0
  m_Name: LightBuilder
  m_TagString: Untagged
  m_Icon: {fileID: 0}
  m_NavMeshLayer: 0
  m_StaticEditorFlags: 0
  m_IsActive: 1
--- !u!4 &4607415696153454309
Transform:
  m_ObjectHideFlags: 0
  m_CorrespondingSourceObject: {fileID: 0}
  m_PrefabInstance: {fileID: 0}
  m_PrefabAsset: {fileID: 0}
  m_GameObject: {fileID: 269081362596828680}
  m_LocalRotation: {x: 0, y: 0, z: 0, w: 1}
  m_LocalPosition: {x: -25.685146, y: -7.6084785, z: -13.457609}
  m_LocalScale: {x: 1, y: 1, z: 1}
  m_Children: []
  m_Father: {fileID: 0}
  m_RootOrder: 0
  m_LocalEulerAnglesHint: {x: 0, y: 0, z: 0}
--- !u!114 &4714765396746210133
MonoBehaviour:
  m_ObjectHideFlags: 0
  m_CorrespondingSourceObject: {fileID: 0}
  m_PrefabInstance: {fileID: 0}
  m_PrefabAsset: {fileID: 0}
  m_GameObject: {fileID: 269081362596828680}
  m_Enabled: 1
  m_EditorHideFlags: 0
  m_Script: {fileID: 11500000, guid: 587d1ebd8c52ede4796ad1d8c809c216, type: 3}
  m_Name: 
  m_EditorClassIdentifier: 
  lightPrefabs:
  - {fileID: 18902330027318153, guid: 829fff7dbae64b4408c717fa1a605fb6, type: 3}
  - {fileID: 7979225562988580629, guid: bdaf37adf13a75a44afafa52b67e8cce, type: 3}
  - {fileID: 8826487054988660009, guid: 1a79eb2ab5f45ec40b05e70a43f1a56a, type: 3}
  - {fileID: 7250028968601733092, guid: 186639d9064baf34ba2eca838a2449b1, type: 3}
  - {fileID: 1878034942449891654, guid: 2f4205c6d1ee692468d86dc925c54145, type: 3}
  - {fileID: 1057212787837987673, guid: bf122e8cf7386454bbe8535558f794ad, type: 3}
  currentLightObject: {fileID: 0}
